{
    "tracks": {
      "href": "https://api.spotify.com/v1/search?offset=0&limit=3&query=lana%20del%20rey&type=track",
      "limit": 3,
      "next": "https://api.spotify.com/v1/search?offset=3&limit=3&query=lana%20del%20rey&type=track",
      "offset": 0,
      "previous": null,
      "total": 1000,
      "items": [
        {
          "album": {
            "album_type": "album",
            "artists": [
              {
                "external_urls": {
                  "spotify": "https://open.spotify.com/artist/00FQb4jTyendYWaN8pK0wa"
                },
                "href": "https://api.spotify.com/v1/artists/00FQb4jTyendYWaN8pK0wa",
                "id": "00FQb4jTyendYWaN8pK0wa",
                "name": "Lana Del Rey",
                "type": "artist",
                "uri": "spotify:artist:00FQb4jTyendYWaN8pK0wa"
              }
            ],
            "available_markets": ["AR", "AU", "BO", "BR", "BG", "CL", "CO", "CR"],
            "external_urls": {
              "spotify": "https://open.spotify.com/album/5VoeRuTrGhTbKelUfwymwu"
            },
            "href": "https://api.spotify.com/v1/albums/5VoeRuTrGhTbKelUfwymwu",
            "id": "5VoeRuTrGhTbKelUfwymwu",
            "images": [
              {
                "height": 640,
                "width": 640,
                "url": "https://i.scdn.co/image/ab67616d0000b273ebc8cfac8b586bc475b04918"
              },
              {
                "height": 300,
                "width": 300,
                "url": "https://i.scdn.co/image/ab67616d00001e02ebc8cfac8b586bc475b04918"
              },
              {
                "height": 64,
                "width": 64,
                "url": "https://i.scdn.co/image/ab67616d00004851ebc8cfac8b586bc475b04918"
              }
            ],
            "is_playable": true,
            "name": "Born To Die - The Paradise Edition",
            "release_date": "2012-01-01",
            "release_date_precision": "day",
            "total_tracks": 23,
            "type": "album",
            "uri": "spotify:album:5VoeRuTrGhTbKelUfwymwu"
          },
          "artists": [
            {
              "external_urls": {
                "spotify": "https://open.spotify.com/artist/00FQb4jTyendYWaN8pK0wa"
              },
              "href": "https://api.spotify.com/v1/artists/00FQb4jTyendYWaN8pK0wa",
              "id": "00FQb4jTyendYWaN8pK0wa",
              "name": "Lana Del Rey",
              "type": "artist",
              "uri": "spotify:artist:00FQb4jTyendYWaN8pK0wa"
            }
          ],
          "available_markets": ["AR", "AU", "BO", "BR", "BG", "CL", "CO", "CR"],
          "disc_number": 1,
          "duration_ms": 265427,
          "explicit": false,
          "external_ids": {
            "isrc": "GBUM71111565"
          },
          "external_urls": {
            "spotify": "https://open.spotify.com/track/3BJe4B8zGnqEdQPMvfVjuS"
          },
          "href": "https://api.spotify.com/v1/tracks/3BJe4B8zGnqEdQPMvfVjuS",
          "id": "3BJe4B8zGnqEdQPMvfVjuS",
          "is_local": false,
          "is_playable": true,
          "name": "Summertime Sadness",
          "popularity": 78,
          "preview_url": null,
          "track_number": 11,
          "type": "track",
          "uri": "spotify:track:3BJe4B8zGnqEdQPMvfVjuS"
        }
      ]
    }
  }
  